{
    "telemetry.machineId": "080fdf25099f631af6a44dae0a3e1747c1b82ad0065ca6e2b2099ce193bce08d",
    "openedPathsList": {
        "workspaces3": [
            {
                "id": "b1617256d1ce7ccebc5258512c612d24",
                "configURIPath": "file:///d%3A/ALO170JAVA/.metadata/codemix.code-workspace"
            }
        ],
        "files2": []
    },
    "theme": "vs-dark",
    "themeBackground": "#221a0f"
}